<svg xmlns="http://www.w3.org/2000/svg" width="55" height="45" viewBox="0 0 55 45">
  <metadata><?xpacket begin="﻿" id="W5M0MpCehiHzreSzNTczkc9d"?>
<x:xmpmeta xmlns:x="adobe:ns:meta/" x:xmptk="Adobe XMP Core 5.6-c138 79.159824, 2016/09/14-01:09:01        ">
   <rdf:RDF xmlns:rdf="http://www.w3.org/1999/02/22-rdf-syntax-ns#">
      <rdf:Description rdf:about=""/>
   </rdf:RDF>
</x:xmpmeta>
                                                                                                    
                                                                                                    
                                                                                                    
                                                                                                    
                                                                                                    
                                                                                                    
                                                                                                    
                                                                                                    
                                                                                                    
                                                                                                    
                                                                                                    
                                                                                                    
                                                                                                    
                                                                                                    
                                                                                                    
                                                                                                    
                                                                                                    
                                                                                                    
                                                                                                    
                                                                                                    
                           
<?xpacket end="w"?></metadata>
<defs>
    <style>
      .cls-1 {
        fill-rule: evenodd;
      }
    </style>
  </defs>
  <path class="cls-1" d="M627.25,369.061v-0.918a0.917,0.917,0,1,0-1.833,0v0.918h-7.333V351.606a11.939,11.939,0,0,0-11.914-11.933h-2.753v-0.921a2.764,2.764,0,0,0-2.75-2.752H591.5a2.764,2.764,0,0,0-2.747,2.755v0.918h-1.84A11.926,11.926,0,0,0,575,351.612v14.7a8.265,8.265,0,0,0,8.248,8.261h3.668a6.417,6.417,0,1,0,12.834,0h27.5A2.764,2.764,0,0,0,630,371.819v0A2.764,2.764,0,0,0,627.25,369.061Zm-36.666-30.3a0.924,0.924,0,0,1,.917-0.921h9.163a0.925,0.925,0,0,1,.92.921v0.915h-11v-0.915Zm-7.333,33.977h0a6.43,6.43,0,0,1-6.415-6.429V351.612a10.1,10.1,0,0,1,10.083-10.1H606.17a10.1,10.1,0,0,1,10.08,10.1v21.123h-1.833V350.694a2.755,2.755,0,0,0-2.75-2.755h-7.333a2.755,2.755,0,0,0-2.75,2.755v22.041h-2.1c-0.015-.051-0.036-0.1-0.052-0.15s-0.035-.1-0.052-0.15a6.422,6.422,0,0,0-.35-0.825l-0.016-.027a6.292,6.292,0,0,0-.465-0.749c-0.023-.033-0.044-0.066-0.068-0.1a6.327,6.327,0,0,0-.553-0.645c-0.042-.044-0.085-0.086-0.128-0.128a6.384,6.384,0,0,0-.631-0.543c-0.043-.032-0.088-0.06-0.131-0.09a6.267,6.267,0,0,0-.676-0.422c-0.031-.017-0.06-0.036-0.091-0.052a6.527,6.527,0,0,0-.8-0.342c-0.049-.017-0.1-0.036-0.148-0.052a6.349,6.349,0,0,0-.859-0.216c-0.021,0-.04-0.012-0.061-0.015-0.041-.007-0.082-0.008-0.123-0.014q-0.206-.031-0.414-0.048c-0.073-.006-0.146-0.012-0.219-0.015-0.13-.006-0.261-0.007-0.392,0-0.082,0-.164,0-0.245.006-0.118.006-.237,0.018-0.357,0.031-0.089.009-.178,0.018-0.267,0.032-0.036,0-.071.007-0.107,0.013s-0.087.023-.131,0.032a6.1,6.1,0,0,0-.617.15c-0.068.02-.137,0.037-0.2,0.059a6.439,6.439,0,0,0-.7.28c-0.074.034-.144,0.074-0.217,0.112q-0.252.129-.49,0.281c-0.07.044-.141,0.087-0.21,0.134a6.582,6.582,0,0,0-.6.465c-0.033.029-.063,0.061-0.1,0.091a6.742,6.742,0,0,0-.48.491c-0.039.044-.077,0.088-0.115,0.133a6.335,6.335,0,0,0-.877,1.378c-0.02.043-.038,0.086-0.057,0.129a6.436,6.436,0,0,0-.26.692c-0.008.026-.021,0.05-0.029,0.077h-3.938Zm14.666,1.836a4.583,4.583,0,1,1-9.166,0,4.154,4.154,0,0,1,.069-0.765,4.573,4.573,0,0,1,.2-0.757c0.029-.083.068-0.16,0.1-0.24a4.666,4.666,0,0,1,.213-0.458c0.048-.086.1-0.166,0.155-0.249a4.676,4.676,0,0,1,.271-0.385c0.059-.074.122-0.145,0.185-0.216a4.811,4.811,0,0,1,.343-0.342c0.065-.058.131-0.116,0.2-0.171a4.684,4.684,0,0,1,.418-0.294c0.068-.043.135-0.088,0.205-0.128a4.707,4.707,0,0,1,.482-0.227c0.071-.03.139-0.064,0.212-0.09a4.518,4.518,0,0,1,.545-0.15c0.067-.015.131-0.038,0.2-0.05s0.139-.01.208-0.018a4.564,4.564,0,0,1,.666-0.045c0.1,0,.2.017,0.3,0.025a4.6,4.6,0,0,1,.541.074c0.1,0.02.193,0.046,0.289,0.072a4.728,4.728,0,0,1,.522.18c0.08,0.033.161,0.065,0.239,0.1a4.51,4.51,0,0,1,.583.338c0.037,0.024.077,0.044,0.112,0.069a4.6,4.6,0,0,1,.606.527c0.054,0.056.1,0.118,0.151,0.177a4.728,4.728,0,0,1,.349.446c0.058,0.086.111,0.175,0.164,0.265a4.607,4.607,0,0,1,.237.471c0.04,0.091.082,0.181,0.116,0.275a4.564,4.564,0,0,1,.211.771c0,0.014.008,0.027,0.01,0.041a4.084,4.084,0,0,1,.067.752h0Zm5.5-1.836V350.694a0.919,0.919,0,0,1,.917-0.919h7.333a0.919,0.919,0,0,1,.917.919v22.041h-9.167Zm23.833,0h-9.166V370.9h9.163A0.919,0.919,0,0,1,627.25,372.735Zm-33.928-.919a2.753,2.753,0,0,0-2.7,2.349,2.253,2.253,0,0,0-.035.407,2.761,2.761,0,0,0,2.748,2.755h0a2.763,2.763,0,0,0,2.748-2.764,2.636,2.636,0,0,0-.047-0.471A2.756,2.756,0,0,0,593.322,371.816Zm0.012,3.674a0.923,0.923,0,0,1-.917-0.919s0.011-.112.011-0.113a0.933,0.933,0,0,1,.9-0.805,0.923,0.923,0,0,1,.9.78,0.791,0.791,0,0,1,.016.138A0.923,0.923,0,0,1,593.334,375.49ZM597,358.041v-7.347a2.755,2.755,0,0,0-2.75-2.755H582.334a2.755,2.755,0,0,0-2.75,2.755v7.347a2.756,2.756,0,0,0,2.75,2.755h11.917A2.756,2.756,0,0,0,597,358.041Zm-15.584,0v-7.347a0.919,0.919,0,0,1,.917-0.919h11.917a0.918,0.918,0,0,1,.916.919v7.347a0.918,0.918,0,0,1-.916.918H582.334A0.919,0.919,0,0,1,581.417,358.041Zm4.315-6.16a0.914,0.914,0,0,0-1.3,0l-0.917.918a0.917,0.917,0,1,0,1.3,1.3l0.917-.918A0.92,0.92,0,0,0,585.732,351.881Zm3.287,0-3.666,3.674a0.917,0.917,0,1,0,1.3,1.3l3.666-3.673A0.917,0.917,0,1,0,589.019,351.881Zm20.815,8a0.917,0.917,0,0,0-.917.919v1.837a0.917,0.917,0,1,0,1.833,0V360.8A0.917,0.917,0,0,0,609.834,359.877ZM608,351.612a2.755,2.755,0,1,0,2.75,2.755A2.756,2.756,0,0,0,608,351.612Zm0,3.674a0.919,0.919,0,1,1,.917-0.919A0.919,0.919,0,0,1,608,355.286Z" transform="translate(-575 -336)"/>
</svg>
